{
  "project_info": {
    "project_number": "866630545544",
    "firebase_url": "https://fir-example-c1682.firebaseio.com",
    "project_id": "fir-example-c1682",
    "storage_bucket": "fir-example-c1682.appspot.com"
  },
  "client": [
    {
      "client_info": {
        "mobilesdk_app_id": "1:866630545544:android:202d4fe9a7ed1e59",
        "android_client_info": {
          "package_name": "com.food_mobile"
        }
      },
      "oauth_client": [
        {
          "client_id": "866630545544-kel8k9jg3hjps98or9hek3vc9dfer7m9.apps.googleusercontent.com",
          "client_type": 3
        }
      ],
      "api_key": [
        {
          "current_key": "AIzaSyAfY_nev0O59_NEv2HMP9dXP07rXM1QDr4"
        }
      ],
      "services": {
        "analytics_service": {
          "status": 1
        },
        "appinvite_service": {
          "status": 1,
          "other_platform_oauth_client": []
        },
        "ads_service": {
          "status": 2
        }
      }
    }
  ],
  "configuration_version": "1"
}